it\coderwanda\rem\core\testcontext\AppAemContext$1.class
it\coderwanda\rem\core\listeners\SimpleResourceListenerTest.class
it\coderwanda\rem\core\servlets\MyFirstSlingServlet.class
it\coderwanda\rem\core\filters\LoggingFilterTest.class
it\coderwanda\rem\core\servlets\SimpleServletTest.class
it\coderwanda\rem\core\schedulers\SimpleScheduledTaskTest.class
it\coderwanda\rem\core\testcontext\AppAemContext.class
it\coderwanda\rem\core\models\HelloWorldModelTest.class
